{
  "kind": "singleType",
  "collectionName": "footers",
  "info": {
    "name": "FOOTER",
    "description": ""
  },
  "options": {
    "increments": true,
    "timestamps": true,
    "draftAndPublish": true
  },
  "pluginOptions": {},
  "attributes": {
    "aboutUs": {
      "type": "text"
    },
    "email": {
      "type": "email"
    },
    "phoneNo": {
      "type": "string"
    },
    "socials": {
      "type": "component",
      "repeatable": true,
      "component": "links.social-link"
    },
    "subscribeText": {
      "type": "string"
    }
  }
}
