{
  "kind": "singleType",
  "collectionName": "home_get_in_touches",
  "info": {
    "name": "HOME_GET_IN_TOUCH",
    "description": ""
  },
  "options": {
    "increments": true,
    "timestamps": true,
    "draftAndPublish": true
  },
  "pluginOptions": {},
  "attributes": {
    "content": {
      "type": "component",
      "repeatable": true,
      "component": "misc.get-in-touch",
      "max": 3
    },
    "sectionTitle": {
      "type": "component",
      "repeatable": false,
      "component": "misc.section-title"
    }
  }
}
