{
  "kind": "singleType",
  "collectionName": "contacts",
  "info": {
    "name": "CONTACT"
  },
  "options": {
    "increments": true,
    "timestamps": true,
    "draftAndPublish": true
  },
  "pluginOptions": {},
  "attributes": {
    "address": {
      "type": "string"
    },
    "phoneNo": {
      "type": "string"
    },
    "mail": {
      "type": "email"
    }
  }
}
