{
  "kind": "singleType",
  "collectionName": "home_section_with_images",
  "info": {
    "name": "HOME_SECTION_WITH_IMAGE",
    "description": ""
  },
  "options": {
    "increments": true,
    "timestamps": true,
    "draftAndPublish": true
  },
  "pluginOptions": {},
  "attributes": {
    "title": {
      "type": "string"
    },
    "subtitle": {
      "type": "string"
    },
    "description": {
      "type": "string"
    },
    "thumbnail": {
      "model": "file",
      "via": "related",
      "allowedTypes": [
        "images",
        "files",
        "videos"
      ],
      "plugin": "upload",
      "required": false,
      "pluginOptions": {}
    },
    "buttonName": {
      "type": "string"
    }
  }
}
