{
  "kind": "singleType",
  "collectionName": "home_headers",
  "info": {
    "name": "HOME_HEADER",
    "description": ""
  },
  "options": {
    "increments": true,
    "timestamps": true,
    "draftAndPublish": true
  },
  "pluginOptions": {},
  "attributes": {
    "title": {
      "type": "string"
    },
    "description": {
      "type": "string"
    },
    "email": {
      "type": "string"
    },
    "button": {
      "type": "component",
      "repeatable": false,
      "component": "links.normal-link"
    },
    "image": {
      "model": "file",
      "via": "related",
      "allowedTypes": [
        "images",
        "files",
        "videos"
      ],
      "plugin": "upload",
      "required": false,
      "pluginOptions": {}
    },
    "subtitle": {
      "type": "string"
    }
  }
}
