{
  "kind": "collectionType",
  "collectionName": "categories",
  "info": {
    "name": "[TAG] Categories",
    "description": ""
  },
  "options": {
    "increments": true,
    "timestamps": true,
    "draftAndPublish": true
  },
  "pluginOptions": {},
  "attributes": {
    "name": {
      "type": "string"
    },
    "slug": {
      "type": "uid",
      "targetField": "name"
    },
    "for": {
      "type": "enumeration",
      "enum": [
        "slot",
        "bonus"
      ]
    }
  }
}
